<svg width="16" height="21" viewBox="0 0 16 21" fill="none" xmlns="http://www.w3.org/2000/svg">
    <path d="M13.8008 2.23896C12.4242 0.917349 10.5189 0.189453 8.43623 0.189453C5.2548 0.189453 3.29807 1.49356 2.21681 2.58752C0.884225 3.93569 0.120117 5.72582 0.120117 7.49896C0.120117 9.72527 1.05134 11.434 2.61076 12.0697C2.71545 12.1126 2.8208 12.1342 2.92408 12.1342C3.25307 12.1342 3.51374 11.919 3.60405 11.5737C3.65671 11.3756 3.77866 10.8869 3.83171 10.6747C3.94522 10.2558 3.8535 10.0543 3.60592 9.76249C3.15491 9.22882 2.94487 8.59776 2.94487 7.77646C2.94487 5.33695 4.76136 2.74428 8.12807 2.74428C10.7994 2.74428 12.4588 4.26257 12.4588 6.70657C12.4588 8.24885 12.1266 9.67714 11.5232 10.7285C11.1039 11.4591 10.3666 12.3299 9.23472 12.3299C8.74526 12.3299 8.30557 12.1288 8.02815 11.7783C7.76607 11.4469 7.67967 11.0189 7.7851 10.5727C7.90416 10.0687 8.06654 9.54288 8.22369 9.0346C8.5103 8.10623 8.78124 7.22939 8.78124 6.52981C8.78124 5.33324 8.04561 4.52921 6.95087 4.52921C5.55961 4.52921 4.46964 5.94227 4.46964 7.74619C4.46964 8.63088 4.70476 9.29261 4.81121 9.54667C4.63593 10.2893 3.59428 14.7041 3.3967 15.5366C3.28245 16.0226 2.59424 19.8611 3.73335 20.1671C5.0132 20.511 6.15723 16.7726 6.27368 16.3502C6.36805 16.0066 6.69825 14.7075 6.9006 13.909C7.51845 14.5041 8.51327 14.9064 9.48124 14.9064C11.3061 14.9064 12.9472 14.0853 14.1023 12.5944C15.2226 11.1482 15.8396 9.13268 15.8396 6.91923C15.8395 5.18883 15.0964 3.48288 13.8008 2.23896Z" fill="white"/>
</svg>
